Acer Note Light     2699 5.6 02.0x11.8x08.3 100 40 10.4 1 1024x0768 60 0.774
ASW ND5123T         3489 7.2 02.3x11.8x10.1 133 32 12.1 2 1024x0768 70 1.300
ARMNote TS80CD      3699 7.2 02.0x11.5x08.8 133 64 11.3 1 1024x0768 75 1.300
AST Ascentia P50    4499 7.5 02.3x11.3x09.0 133 40 11.3 1 0800x0600 70 0.774
BSI NP8657D         2605 8.0 02.3x11.8x09.3 133 40 11.3 1 1024x0768 60 0.810
BSI NP5265A         3765 8.2 02.5x12.0x09.0 150 32 12.1 2 1024x0768 70 1.300
Dell Xpi P100SD     3459 6.0 02.3x11.0x08.8 100 40 10.3 1 1024x0768 60 0.773
Digital HiNote      4799 4.0 01.3x11.0x08.8 120 40 10.4 1 0800x0600 56 1.000
Gateway Solo S5     4499 5.6 02.0x11.9x08.8 133 40 11.3 2 1024x0768 60 0.686
Hertz Z-Optima NB   3995 8.0 02.3x11.9x09.0 150 40 11.2 2 1024x0768 75 1.000
HP OmniBook 5500    6120 7.1 02.0x11.5x09.0 133 64 11.4 1 1024x0768 75 1.300
IBM ThinkPad 560    3749 4.1 01.3x11.8x08.8 120 40 12.1 2 1024x0768 85 0.774
NEC Versa 4080H     4780 6.6 02.3x11.8x09.5 120 48 10.4 1 0800x0600 70 0.776
Polywell Poly 500   3300 7.9 02.3x11.9x09.0 120 40 10.4 1 1024x0768 72 1.000
Samsung SENS 810    3667 8.7 02.3x11.5x09.5 100 32 11.4 2 1024x0768 75 0.773
Twinhead Slimnote   2965 7.4 02.0x11.5x08.0 075 64 10.4 1 1024x0768 70 0.772
